[
{
    "model": "polls.question",
    "pk": 1,
    "fields": {
        "question_text": "whats's new",
        "pub_date": "2023-01-17T14:40:38.632Z"
    }
},
{
    "model": "polls.question",
    "pk": 2,
    "fields": {
        "question_text": "Croissant ?",
        "pub_date": "2023-01-17T16:22:10Z"
    }
}
]
