[
  {
    "Name": "zagreus",
    "OS": {
      "Type": "canonical:ubuntu_linux",
      "Version": "16.04"
    },
    "Software": [
      {
        "Type": "gnu:gcc",
        "Version": "*"
      },
      {
        "Type": "canonical:libpam0g-dev",
        "Version": "*"
      },
      {
        "Type": "gnu:make",
        "Version": "*"
      },
      {
        "Type": "rsync",
        "Version": "*"
      },
      {
        "Type": "auditd",
        "Version": "*"
      },
      {
        "Type": "acl",
        "Version": "*"
      },
      {
        "Type": "npm",
        "Version": "*",
        "Port": "3000"
      }
    ],
    "Users": [
      {
        "Name": "alice",
        "Group": "alice",
        "Privilege": "User",
        "Services": [
          "npm"
        ],
        "Credentials": {
          "Type": "UnixUserAccount",
          "Value": "Ftlywp_xyE8bNERgHHZeIw"
        }
      },
      {
        "Name": "superuser",
        "Group": "superuser",
        "Privilege": "SuperUser",
        "Services": [],
        "Credentials": {
          "Type": "UnixUserAccount",
          "Value": "975gHvKBBZMWnM2cNigbjw"
        }
      }
    ],
    "Files": [
      {
        "Destination": "/etc/audit/rules.d/audit.rules",
        "Source": "./generated_files/zagreus/auditd_default_rules",
        "Modification": "WRITE",
        "Owner": "root",
        "Group": "root",
        "Permissions": "0640"
      },
      {
        "Destination": "~/important.txt",
        "Source": "./generated_files/zagreus/txt_file_password_leak",
        "Modification": "WRITE",
        "Owner": "superuser",
        "Group": "superuser",
        "Permissions": "0600"
      },
      {
        "Destination": "~/",
        "Source": "./generated_files/zagreus/npm_website_with_command_injection_easy",
        "Modification": "WRITE",
        "Owner": "alice",
        "Group": "alice",
        "Permissions": "0755"
      }
    ],
    "Inline Files": []
  },
  {
    "Name": "hades",
    "OS": {
      "Type": "debian:debian_linux",
      "Version": "11.0"
    },
    "Software": [
      {
        "Type": "rsync",
        "Version": "*"
      },
      {
        "Type": "auditd",
        "Version": "*"
      },
      {
        "Type": "acl",
        "Version": "*"
      },
      {
        "Type": "python3-pip",
        "Version": "*"
      },
      {
        "Type": "python",
        "Version": "3.5.0",
        "Port": "8000"
      },
      {
        "Type": "ssh:ssh",
        "Version": "*",
        "Port": "22"
      },
      {
        "Type": "postgresql",
        "Version": "*"
      }
    ],
    "Users": [
      {
        "Name": "bob",
        "Group": "bob",
        "Privilege": "User",
        "Services": [
          "django"
        ],
        "Credentials": {
          "Type": "UnixUserAccount",
          "Value": "jgASrBBTzj9f7Pc5P0D7zQ"
        }
      },
      {
        "Name": "superuser",
        "Group": "superuser",
        "Privilege": "SuperUser",
        "Services": [],
        "Credentials": {
          "Type": "UnixUserAccount",
          "Value": "ZkHVuWmsl8PwbG9AcNbHjg"
        }
      }
    ],
    "Files": [
      {
        "Destination": "/etc/audit/rules.d/audit.rules",
        "Source": "./generated_files/hades/auditd_default_rules",
        "Modification": "WRITE",
        "Owner": "root",
        "Group": "root",
        "Permissions": "0640"
      },
      {
        "Destination": "~/",
        "Source": "./generated_files/hades/django_website_with_directory_traversal_rewarding_ssh_key",
        "Modification": "WRITE",
        "Owner": "bob",
        "Group": "bob",
        "Permissions": "0755"
      },
      {
        "Destination": "~/django_website_with_directory_traversal_rewarding_ssh_key/.env",
        "Source": "./generated_files/hades/django_user_create_superuser",
        "Modification": "WRITE",
        "Owner": "bob",
        "Group": "bob",
        "Permissions": "0755"
      },
      {
        "Destination": "~/django_website_with_directory_traversal_rewarding_ssh_key/notes/fixtures/ssh_key.json",
        "Source": "./generated_files/hades/django_ssh_note_key",
        "Modification": "WRITE",
        "Owner": "bob",
        "Group": "bob",
        "Permissions": "0755"
      },
      {
        "Destination": "~/.ssh/authorized_keys",
        "Source": "./generated_files/hades/add_ssh_public_key",
        "Modification": "WRITE",
        "Owner": "superuser",
        "Group": "superuser",
        "Permissions": "0644"
      },
      {
        "Destination": "~/.bash_history",
        "Source": "./generated_files/hades/bash_history_password_leak",
        "Modification": "WRITE",
        "Owner": "superuser",
        "Group": "superuser",
        "Permissions": "0600"
      }
    ],
    "Inline Files": []
  },
  {
    "Name": "melinoe",
    "OS": {
      "Type": "canonical:ubuntu_linux",
      "Version": "20.04"
    },
    "Software": [
      {
        "Type": "rsync",
        "Version": "*"
      },
      {
        "Type": "auditd",
        "Version": "*"
      },
      {
        "Type": "acl",
        "Version": "*"
      },
      {
        "Type": "postgresql",
        "Version": "*"
      }
    ],
    "Users": [
      {
        "Name": "postgres",
        "Group": "postgres",
        "Privilege": "User",
        "Services": [],
        "Credentials": {
          "Type": "UnixUserAccount",
          "Value": "e0eL6-n_7GKuKe02mwt9Tw"
        }
      }
    ],
    "Files": [
      {
        "Destination": "/etc/audit/rules.d/audit.rules",
        "Source": "./generated_files/melinoe/auditd_default_rules",
        "Modification": "WRITE",
        "Owner": "root",
        "Group": "root",
        "Permissions": "0640"
      },
      {
        "Destination": "~/placeholder.txt",
        "Source": "./generated_files/melinoe/postgresql_flag",
        "Modification": "WRITE",
        "Owner": "postgres",
        "Group": "postgres",
        "Permissions": "0777"
      },
      {
        "Destination": "~/meme_DB.sql",
        "Source": "./generated_files/melinoe/postgresql_database",
        "Modification": "WRITE",
        "Owner": "postgres",
        "Group": "postgres",
        "Permissions": "0755"
      },
      {
        "Destination": "/etc/postgresql/12/main/postgresql.conf",
        "Source": "./generated_files/melinoe/postgresql_database_allow_all_listen_adresses_postgresql",
        "Modification": "EDIT listen_addresses",
        "Owner": "postgres",
        "Group": "postgres",
        "Permissions": "0644"
      },
      {
        "Destination": "/etc/postgresql/12/main/pg_hba.conf",
        "Source": "./generated_files/melinoe/postgresql_database_allow_all_listen_adresses_hba",
        "Modification": "APPEND",
        "Owner": "postgres",
        "Group": "postgres",
        "Permissions": "0640"
      }
    ],
    "Inline Files": [
      {
        "Destination": "/tmp/meme_DB.sql",
        "Source": "./generated_files/melinoe/postgresql_create_meme_db_from_password",
        "Modification": "EXECUTE",
        "Owner": "root",
        "Group": "root",
        "Permissions": "0777"
      }
    ]
  }
]