[
  {
    "Name": "Bear",
    "OS": {
      "Type": "debian:debian_linux",
      "Version": "11.0"
    },
    "Software": [],
    "Users": [
      {
        "Name": "Alice",
        "Group": "Alice",
        "Privilege": "User",
        "Credentials": {
          "Type": "UnixUserAccount",
          "Value": "176263ff329b902bd3dc76dff01f0f91"
        }
      },
      {
        "Name": "Charlie",
        "Group": "Charlie",
        "Privilege": "User",
        "Credentials": {
          "Type": "UnixUserAccount",
          "Value": "november"
        }
      },
      {
        "Name": "Bob",
        "Group": "Bob",
        "Privilege": "User",
        "Credentials": {
          "Type": "UnixUserAccount",
          "Value": "rainbow"
        }
      },
      {
        "Name": "SuperUser",
        "Group": "SuperUser",
        "Privilege": "SuperUser",
        "Credentials": {
          "Type": "UnixUserAccount",
          "Value": "8b72691e17805ed61e7b6f55731a9928"
        }
      }
    ],
    "Files": [
      {
        "Source": "./generated_files/Bear/unix_simple_payload",
        "Destination": "~/payload.sh",
        "Permissions": "0777",
        "Modification": "WRITE",
        "Owner": "Alice",
        "Group": "Alice"
      },
      {
        "Source": "./generated_files/Bear/important_business.pdf",
        "Destination": "~/business_file.pdf",
        "Permissions": "0644",
        "Modification": "WRITE",
        "Owner": "Alice",
        "Group": "Alice"
      },
      {
        "Source": "./generated_files/Bear/sudoers_add_less_to_all",
        "Destination": "/etc/sudoers",
        "Permissions": "0440",
        "Modification": "APPEND",
        "Owner": "root",
        "Group": "root"
      },
      {
        "Source": "./generated_files/Bear/private_key_in_ssh",
        "Destination": "~/.ssh/id_rsa_new",
        "Permissions": "0600",
        "Modification": "WRITE",
        "Owner": "SuperUser",
        "Group": "SuperUser"
      }
    ]
  },
  {
    "Name": "Raccoon",
    "OS": {
      "Type": "debian:debian_linux",
      "Version": "9.0"
    },
    "Software": [
      {
        "Type": "gnu:make",
        "Version": "*"
      },
      {
        "Type": "gnu:gcc",
        "Version": "*"
      },
      {
        "Type": "canonical:libpam0g-dev",
        "Version": "*"
      },
      {
        "Type": "sudo_project:sudo",
        "Version": "1.8.2"
      }
    ],
    "Users": [
      {
        "Name": "Bob",
        "Group": "Bob",
        "Privilege": "User",
        "Credentials": {
          "Type": "UnixUserAccount",
          "Value": "rainbow"
        }
      },
      {
        "Name": "SuperUser",
        "Group": "SuperUser",
        "Privilege": "SuperUser",
        "Credentials": {
          "Type": "UnixUserAccount",
          "Value": "3469571945d054e3b1d93ca606b530be"
        }
      }
    ],
    "Files": [
      {
        "Source": "./generated_files/Raccoon/ssh_authorize_passwords",
        "Destination": "/etc/ssh/sshd_config",
        "Permissions": "0644",
        "Modification": "EDIT PasswordAuthentication",
        "Owner": "Bob",
        "Group": "Bob"
      },
      {
        "Source": "./generated_files/Raccoon/important_student.pdf",
        "Destination": "~/student_file.pdf",
        "Permissions": "0644",
        "Modification": "WRITE",
        "Owner": "Bob",
        "Group": "Bob"
      },
      {
        "Source": "./generated_files/Raccoon/bash_history_password_leak",
        "Destination": "~/.bash_history",
        "Permissions": "0600",
        "Modification": "WRITE",
        "Owner": "SuperUser",
        "Group": "SuperUser"
      },
      {
        "Source": "./generated_files/Raccoon/sudo_1.8.2_exploit",
        "Destination": "/etc/sudoers",
        "Permissions": "4111",
        "Modification": "APPEND",
        "Owner": "root",
        "Group": "root"
      }
    ],
    "Inline": [
      "sudo systemctl restart sshd"
    ]
  },
  {
    "Name": "Badger",
    "OS": {
      "Type": "debian:debian_linux",
      "Version": "8.0"
    },
    "Software": [],
    "Users": [
      {
        "Name": "Charlie",
        "Group": "Charlie",
        "Privilege": "User",
        "Credentials": {
          "Type": "UnixUserAccount",
          "Value": "november"
        }
      },
      {
        "Name": "SuperUser",
        "Group": "SuperUser",
        "Privilege": "SuperUser",
        "Credentials": {
          "Type": "UnixUserAccount",
          "Value": "19ed40ecfb5562f60686cc40ea8ea1e0"
        }
      }
    ],
    "Files": [
      {
        "Source": "./generated_files/Badger/ssh_authorize_passwords",
        "Destination": "/etc/ssh/sshd_config",
        "Permissions": "0644",
        "Modification": "EDIT PasswordAuthentication",
        "Owner": "Charlie",
        "Group": "Charlie"
      },
      {
        "Source": "./generated_files/Badger/important_business.pdf",
        "Destination": "~/business_file.pdf",
        "Permissions": "0644",
        "Modification": "WRITE",
        "Owner": "Charlie",
        "Group": "Charlie"
      },
      {
        "Source": "./generated_files/Badger/sudoers_add_less_to_all",
        "Destination": "/etc/sudoers",
        "Permissions": "0440",
        "Modification": "APPEND",
        "Owner": "root",
        "Group": "root"
      }
    ],
    "Inline": [
      "sudo systemctl restart sshd"
    ]
  },
  {
    "Name": "Skunk",
    "OS": {
      "Type": "debian:debian_linux",
      "Version": "7.0"
    },
    "Software": [],
    "Users": [
      {
        "Name": "Diana",
        "Group": "Diana",
        "Privilege": "User",
        "Credentials": {
          "Type": "UnixUserAccount",
          "Value": "e34b8ef82108b25cbc800bc8bbd6209c"
        }
      },
      {
        "Name": "SuperUser",
        "Group": "SuperUser",
        "Privilege": "SuperUser",
        "Credentials": {
          "Type": "UnixUserAccount",
          "Value": "41a1f4e93b34735335e6d654a7318020"
        }
      }
    ],
    "Files": [
      {
        "Source": "./generated_files/Skunk/ssh_add_public_key",
        "Destination": "~/.ssh/authorized_keys",
        "Permissions": "0644",
        "Modification": "APPEND+",
        "Owner": "Diana",
        "Group": "Diana"
      },
      {
        "Source": "./generated_files/Skunk/important_business.pdf",
        "Destination": "~/business_file.pdf",
        "Permissions": "0644",
        "Modification": "WRITE",
        "Owner": "Diana",
        "Group": "Diana"
      },
      {
        "Source": "./generated_files/Skunk/crontab_scan_sh",
        "Destination": "/etc/crontab",
        "Permissions": "0644",
        "Modification": "APPEND",
        "Owner": "root",
        "Group": "root"
      },
      {
        "Source": "./generated_files/Skunk/scan_sh_for_crontab",
        "Destination": "~/scan.sh",
        "Permissions": "0744",
        "Modification": "WRITE",
        "Owner": "Diana",
        "Group": "Diana"
      }
    ]
  }
]